…
``` r
# Print results
q1.1
```

    ## # A tibble: 2,141 x 1
    ##    `FCS3.0          58    2767    2808  350220       0       0\\$BEGINANALYSIS\…
    ##    <chr>                                                                        
    ##  1 "=*Z#\xbf%\xf7\x19\xbf\x1f\xad\xffC\x03\x93\xf1\xbd\x1a\x16p\xbe\xd9\xbf\xb0…
    ##  2 "\xbf\x02\x9b\xb7=\xfd\ba\xbd\x9a"                                           
    ##  3 "\xdf?\x85\xb8\x12\xbf\a\x98+\xbe\xfd\xc3\xd0\xbf\x1e\xee@C\x19:\xdd=\x82bz?…
    ##  4 "\xd5\xbf);'B\xed\xca\x1d@"                                                  
    ##  5 "\x03\x02@\x19\x16TA82\x95?\x14{\x7f\xbf8\xca\x99\xbeO\xd5&?\xa3\x97\x92\xbf…
    ##  6 "?3\x11\x1f@1\xd4\xe2?@;)\xbf\x04\xcf\x8e\xbf\b\xa8\x8b\xbe\xd8Q\xf5\xbe\xd6…
    ##  7 "\xc1\xd7?0\x89\xc5@3\xc8\xea\xbe\xf5\xba7B\xb3\x11+?\xc7\x88\x90A\x17\x12\x…
    ##  8 "j\xbe\x9a)\xb8C6\xce\xc2@\v]"                                               
    ##  9 "A\x9c\x8b6\xbd\xc8l\xbcB\xab\xc0\xfaB4\xb7\xd9>\xd7\x13_\xbf"               
    ## 10 "\x14\xb1\xbf%\x80^?J\xf2\t\xbf4U\xcc\xbd\x91gX?f\xb4\xe6\xbe0\xba(@*!\xe4\x…
    ## # … with 2,131 more rows
…
